{
  "ANSWER_COUNT": 1,
  "CTAG": "CAH",
  "TEXT": "Es tut mir leid, Professor, aber wegen (des) <u>____</u> konnte ich meine Hausaufgaben nicht machen.",
  "LICENCE": "Creative Commons BY-NC-SA 2.0",
  "WEBSITE": "https://cardsagainsthumanity.com/"
}